{
	"id": "677e7d56-2ebb-4d02-a138-30b69b9b260c",
	"name": "Java CI Prod",
	"values": [
		{
			"key": "baseUrl",
			"value": "http://java-cicd-deploy.ap-southeast-1.elasticbeanstalk.com",
			"enabled": true
		}
	],
	"_postman_variable_scope": "environment",
	"_postman_exported_at": "2022-02-08T11:14:13.065Z",
	"_postman_exported_using": "Postman/9.12.2"
}